\select@language {french}
\beamer@sectionintoc {1}{Grand cycle de l'eau}{4}{1}{1}
\beamer@sectionintoc {2}{Changement climatique}{7}{1}{2}
\beamer@subsectionintoc {2}{1}{Comment est-il \IeC {\'e}valu\IeC {\'e} ?}{7}{1}{2}
\beamer@subsectionintoc {2}{2}{Les effets attendus}{8}{1}{2}
\beamer@sectionintoc {3}{Les risques li\IeC {\'e}s \IeC {\`a} l'homme}{11}{1}{3}
\beamer@sectionintoc {4}{Le sol, l'air et l'eau : un syst\IeC {\`e}me}{14}{3}{4}
\beamer@subsectionintoc {4}{1}{Les limites du sol}{14}{3}{4}
\beamer@subsectionintoc {4}{2}{Un syst\IeC {\`e}mes d'\IeC {\'e}changes}{16}{3}{4}
\beamer@sectionintoc {5}{Circulation de l'eau}{18}{3}{5}
\beamer@subsectionintoc {5}{1}{L'eau du sol \IeC {\`a} la plante}{19}{3}{5}
\beamer@subsubsectionintoc {5}{1}{1}{Les racines}{19}{3}{5}
\beamer@subsectionintoc {5}{2}{Humidit\IeC {\'e}}{20}{3}{5}
\beamer@sectionintoc {6}{Bonnes pratiques}{21}{3}{6}
\beamer@sectionintoc {7}{Transpiration et \IeC {\'e}vaporation}{22}{3}{7}
\beamer@sectionintoc {8}{Temp\IeC {\'e}ratures}{34}{3}{8}
\beamer@sectionintoc {9}{\IeC {\'E}rosion}{35}{3}{9}
