\relax 
\providecommand\hyper@newdestlabel[2]{}
\providecommand{\transparent@use}[1]{}
\providecommand\HyperFirstAtBeginDocument{\AtBeginDocument}
\HyperFirstAtBeginDocument{\ifx\hyper@anchor\@undefined
\global\let\oldcontentsline\contentsline
\gdef\contentsline#1#2#3#4{\oldcontentsline{#1}{#2}{#3}}
\global\let\oldnewlabel\newlabel
\gdef\newlabel#1#2{\newlabelxx{#1}#2}
\gdef\newlabelxx#1#2#3#4#5#6{\oldnewlabel{#1}{{#2}{#3}}}
\AtEndDocument{\ifx\hyper@anchor\@undefined
\let\contentsline\oldcontentsline
\let\newlabel\oldnewlabel
\fi}
\fi}
\global\let\hyper@last\relax 
\gdef\HyperFirstAtBeginDocument#1{#1}
\providecommand\HyField@AuxAddToFields[1]{}
\providecommand\HyField@AuxAddToCoFields[2]{}
\catcode `:\active 
\catcode `;\active 
\catcode `!\active 
\catcode `?\active 
\select@language{french}
\@writefile{toc}{\select@language{french}}
\@writefile{lof}{\select@language{french}}
\@writefile{lot}{\select@language{french}}
\@writefile{nav}{\headcommand {\slideentry {0}{0}{1}{1/1}{}{0}}}
\@writefile{nav}{\headcommand {\beamer@framepages {1}{1}}}
\@writefile{nav}{\headcommand {\slideentry {0}{0}{2}{2/3}{}{0}}}
\@writefile{nav}{\headcommand {\beamer@framepages {2}{3}}}
\@writefile{nav}{\headcommand {\partentry {Les cycles de l'eau}{1}}}
\@writefile{nav}{\headcommand {\beamer@partpages {1}{3}}}
\@writefile{nav}{\headcommand {\beamer@sectionpages {1}{3}}}
\@writefile{nav}{\headcommand {\beamer@subsectionpages {1}{3}}}
\@writefile{toc}{\beamer@sectionintoc {1}{Grand cycle de l'eau}{4}{1}{1}}
\@writefile{nav}{\headcommand {\sectionentry {1}{Grand cycle de l'eau}{4}{Grand cycle de l'eau}{1}}}
\@writefile{nav}{\headcommand {\beamer@sectionpages {4}{3}}}
\@writefile{nav}{\headcommand {\beamer@subsectionpages {4}{3}}}
\@writefile{nav}{\headcommand {\slideentry {1}{0}{1}{4/5}{}{1}}}
\@writefile{nav}{\headcommand {\beamer@framepages {4}{5}}}
\@writefile{nav}{\headcommand {\slideentry {1}{0}{2}{6/6}{}{1}}}
\@writefile{nav}{\headcommand {\beamer@framepages {6}{6}}}
\@writefile{toc}{\beamer@sectionintoc {2}{Changement climatique}{7}{1}{2}}
\@writefile{nav}{\headcommand {\sectionentry {2}{Changement climatique}{7}{Changement climatique}{1}}}
\@writefile{nav}{\headcommand {\beamer@sectionpages {4}{6}}}
\@writefile{nav}{\headcommand {\beamer@subsectionpages {4}{6}}}
\@writefile{toc}{\beamer@subsectionintoc {2}{1}{Comment est-il \IeC {\'e}valu\IeC {\'e} ?}{7}{1}{2}}
\@writefile{nav}{\headcommand {\beamer@subsectionentry {1}{2}{1}{7}{Comment est-il \IeC {\'e}valu\IeC {\'e} ?}}\headcommand {\beamer@subsectionpages {7}{6}}}
\pgfsyspdfmark {pgfid13}{7673962}{7586328}
\pgfsyspdfmark {pgfid14}{15129630}{1289758}
\@writefile{nav}{\headcommand {\slideentry {2}{1}{1}{7/7}{Comment est-il \IeC {\'e}valu\IeC {\'e} ?}{1}}}
\@writefile{nav}{\headcommand {\beamer@framepages {7}{7}}}
\@writefile{toc}{\beamer@subsectionintoc {2}{2}{Les effets attendus}{8}{1}{2}}
\@writefile{nav}{\headcommand {\beamer@subsectionentry {1}{2}{2}{8}{Les effets attendus}}\headcommand {\beamer@subsectionpages {7}{7}}}
\pgfsyspdfmark {pgfid16}{9092996}{14308044}
\pgfsyspdfmark {pgfid17}{10294490}{14308044}
\pgfsyspdfmark {pgfid18}{13685985}{14308044}
\pgfsyspdfmark {pgfid19}{655200}{1787573}
\@writefile{nav}{\headcommand {\slideentry {2}{2}{1}{8/8}{Les effets attendus}{1}}}
\@writefile{nav}{\headcommand {\beamer@framepages {8}{8}}}
\@writefile{nav}{\headcommand {\slideentry {2}{2}{2}{9/9}{Les effets attendus}{1}}}
\@writefile{nav}{\headcommand {\beamer@framepages {9}{9}}}
\@writefile{nav}{\headcommand {\slideentry {2}{2}{3}{10/10}{Les effets attendus}{1}}}
\@writefile{nav}{\headcommand {\beamer@framepages {10}{10}}}
\@writefile{toc}{\beamer@sectionintoc {3}{Les risques li\IeC {\'e}s \IeC {\`a} l'homme}{11}{1}{3}}
\@writefile{nav}{\headcommand {\sectionentry {3}{Influences anthropiques}{11}{Les risques li\IeC {\'e}s \IeC {\`a} l'homme}{1}}}
\@writefile{nav}{\headcommand {\beamer@sectionpages {7}{10}}}
\@writefile{nav}{\headcommand {\beamer@subsectionpages {8}{10}}}
\@writefile{nav}{\headcommand {\slideentry {3}{0}{1}{11/11}{}{1}}}
\@writefile{nav}{\headcommand {\beamer@framepages {11}{11}}}
\@writefile{nav}{\headcommand {\slideentry {3}{0}{2}{12/12}{}{1}}}
\@writefile{nav}{\headcommand {\beamer@framepages {12}{12}}}
\pgfsyspdfmark {pgfid28}{15755063}{10448763}
\pgfsyspdfmark {pgfid29}{8483390}{5661783}
\pgfsyspdfmark {pgfid30}{655200}{4547671}
\@writefile{nav}{\headcommand {\slideentry {3}{0}{3}{13/13}{}{1}}}
\@writefile{nav}{\headcommand {\beamer@framepages {13}{13}}}
\@writefile{nav}{\headcommand {\partentry {Les arbres dans tout cela}{2}}}
\@writefile{nav}{\headcommand {\beamer@partpages {4}{13}}}
\@writefile{nav}{\headcommand {\beamer@sectionpages {11}{13}}}
\@writefile{nav}{\headcommand {\beamer@subsectionpages {11}{13}}}
\@writefile{nav}{\headcommand {\partentry {P\IeC {\'e}dologie et v\IeC {\'e}g\IeC {\'e}tation : des flux d'eau}{3}}}
\@writefile{nav}{\headcommand {\beamer@partpages {14}{13}}}
\@writefile{nav}{\headcommand {\beamer@sectionpages {14}{13}}}
\@writefile{nav}{\headcommand {\beamer@subsectionpages {14}{13}}}
\@writefile{toc}{\beamer@sectionintoc {4}{Le sol, l'air et l'eau : un syst\IeC {\`e}me}{14}{3}{4}}
\@writefile{nav}{\headcommand {\sectionentry {4}{Le sol, l'air et l'eau : un syst\IeC {\`e}me}{14}{Le sol, l'air et l'eau : un syst\IeC {\`e}me}{3}}}
\@writefile{nav}{\headcommand {\beamer@sectionpages {14}{13}}}
\@writefile{nav}{\headcommand {\beamer@subsectionpages {14}{13}}}
\@writefile{toc}{\beamer@subsectionintoc {4}{1}{Les limites du sol}{14}{3}{4}}
\@writefile{nav}{\headcommand {\beamer@subsectionentry {3}{4}{1}{14}{Les limites du sol}}\headcommand {\beamer@subsectionpages {14}{13}}}
\@writefile{nav}{\headcommand {\slideentry {4}{1}{1}{14/14}{Les limites du sol}{3}}}
\@writefile{nav}{\headcommand {\beamer@framepages {14}{14}}}
\@writefile{nav}{\headcommand {\slideentry {4}{1}{2}{15/15}{Les limites du sol}{3}}}
\@writefile{nav}{\headcommand {\beamer@framepages {15}{15}}}
\@writefile{toc}{\beamer@subsectionintoc {4}{2}{Un syst\IeC {\`e}mes d'\IeC {\'e}changes}{16}{3}{4}}
\@writefile{nav}{\headcommand {\beamer@subsectionentry {3}{4}{2}{16}{Un syst\IeC {\`e}mes d'\IeC {\'e}changes}}\headcommand {\beamer@subsectionpages {14}{15}}}
\@writefile{nav}{\headcommand {\slideentry {4}{2}{1}{16/16}{Un syst\IeC {\`e}mes d'\IeC {\'e}changes}{3}}}
\@writefile{nav}{\headcommand {\beamer@framepages {16}{16}}}
\@writefile{nav}{\headcommand {\slideentry {4}{2}{2}{17/17}{Un syst\IeC {\`e}mes d'\IeC {\'e}changes}{3}}}
\@writefile{nav}{\headcommand {\beamer@framepages {17}{17}}}
\@writefile{toc}{\beamer@sectionintoc {5}{Circulation de l'eau}{18}{3}{5}}
\@writefile{nav}{\headcommand {\sectionentry {5}{Circulation de l'eau}{18}{Circulation de l'eau}{3}}}
\@writefile{nav}{\headcommand {\beamer@sectionpages {14}{17}}}
\@writefile{nav}{\headcommand {\beamer@subsectionpages {16}{17}}}
\pgfsyspdfmark {pgfid48}{655200}{4482960}
\@writefile{nav}{\headcommand {\slideentry {5}{0}{1}{18/18}{}{3}}}
\@writefile{nav}{\headcommand {\beamer@framepages {18}{18}}}
\@writefile{toc}{\beamer@subsectionintoc {5}{1}{L'eau du sol \IeC {\`a} la plante}{19}{3}{5}}
\@writefile{nav}{\headcommand {\beamer@subsectionentry {3}{5}{1}{19}{L'eau du sol \IeC {\`a} la plante}}\headcommand {\beamer@subsectionpages {18}{18}}}
\@writefile{toc}{\beamer@subsubsectionintoc {5}{1}{1}{Les racines}{19}{3}{5}}
\@writefile{nav}{\headcommand {\beamer@subsubsectionentry {3}{5}{1}{1}{19}{Les racines}}}
\pgfsyspdfmark {pgfid50}{655200}{9299855}
\@writefile{nav}{\headcommand {\slideentry {5}{1}{1}{19/19}{L'eau du sol \IeC {\`a} la plante}{3}}}
\@writefile{nav}{\headcommand {\beamer@framepages {19}{19}}}
\@writefile{toc}{\beamer@subsectionintoc {5}{2}{Humidit\IeC {\'e}}{20}{3}{5}}
\@writefile{nav}{\headcommand {\beamer@subsectionentry {3}{5}{2}{20}{Humidit\IeC {\'e}}}\headcommand {\beamer@subsectionpages {19}{19}}}
\@writefile{nav}{\headcommand {\slideentry {5}{2}{1}{20/20}{Humidit\IeC {\'e}}{3}}}
\@writefile{nav}{\headcommand {\beamer@framepages {20}{20}}}
\@writefile{toc}{\beamer@sectionintoc {6}{Bonnes pratiques}{21}{3}{6}}
\@writefile{nav}{\headcommand {\sectionentry {6}{Bonnes pratiques}{21}{Bonnes pratiques}{3}}}
\@writefile{nav}{\headcommand {\beamer@sectionpages {18}{20}}}
\@writefile{nav}{\headcommand {\beamer@subsectionpages {20}{20}}}
\@writefile{nav}{\headcommand {\slideentry {6}{0}{1}{21/21}{}{3}}}
\@writefile{nav}{\headcommand {\beamer@framepages {21}{21}}}
\@writefile{toc}{\beamer@sectionintoc {7}{Transpiration et \IeC {\'e}vaporation}{22}{3}{7}}
\@writefile{nav}{\headcommand {\sectionentry {7}{Transpiration et \IeC {\'e}vaporation}{22}{Transpiration et \IeC {\'e}vaporation}{3}}}
\@writefile{nav}{\headcommand {\beamer@sectionpages {21}{21}}}
\@writefile{nav}{\headcommand {\beamer@subsectionpages {21}{21}}}
\@writefile{nav}{\headcommand {\slideentry {7}{0}{1}{22/22}{}{3}}}
\@writefile{nav}{\headcommand {\beamer@framepages {22}{22}}}
\@writefile{nav}{\headcommand {\slideentry {7}{0}{2}{23/23}{}{3}}}
\@writefile{nav}{\headcommand {\beamer@framepages {23}{23}}}
\@writefile{nav}{\headcommand {\slideentry {7}{0}{3}{24/24}{}{3}}}
\@writefile{nav}{\headcommand {\beamer@framepages {24}{24}}}
\@writefile{nav}{\headcommand {\slideentry {7}{0}{4}{25/25}{}{3}}}
\@writefile{nav}{\headcommand {\beamer@framepages {25}{25}}}
\@writefile{nav}{\headcommand {\slideentry {7}{0}{5}{26/26}{}{3}}}
\@writefile{nav}{\headcommand {\beamer@framepages {26}{26}}}
\@writefile{nav}{\headcommand {\slideentry {7}{0}{6}{27/27}{}{3}}}
\@writefile{nav}{\headcommand {\beamer@framepages {27}{27}}}
\@writefile{nav}{\headcommand {\slideentry {7}{0}{7}{28/28}{}{3}}}
\@writefile{nav}{\headcommand {\beamer@framepages {28}{28}}}
\pgfsyspdfmark {pgfid71}{23212707}{-2114090}
\@writefile{nav}{\headcommand {\slideentry {7}{0}{8}{29/29}{}{3}}}
\@writefile{nav}{\headcommand {\beamer@framepages {29}{29}}}
\@writefile{nav}{\headcommand {\slideentry {7}{0}{9}{30/30}{}{3}}}
\@writefile{nav}{\headcommand {\beamer@framepages {30}{30}}}
\@writefile{nav}{\headcommand {\slideentry {7}{0}{10}{31/31}{}{3}}}
\@writefile{nav}{\headcommand {\beamer@framepages {31}{31}}}
\@writefile{nav}{\headcommand {\slideentry {7}{0}{11}{32/32}{}{3}}}
\@writefile{nav}{\headcommand {\beamer@framepages {32}{32}}}
\@writefile{nav}{\headcommand {\slideentry {7}{0}{12}{33/33}{}{3}}}
\@writefile{nav}{\headcommand {\beamer@framepages {33}{33}}}
\@writefile{toc}{\beamer@sectionintoc {8}{Temp\IeC {\'e}ratures}{34}{3}{8}}
\@writefile{nav}{\headcommand {\sectionentry {8}{Temp\IeC {\'e}ratures}{34}{Temp\IeC {\'e}ratures}{3}}}
\@writefile{nav}{\headcommand {\beamer@sectionpages {22}{33}}}
\@writefile{nav}{\headcommand {\beamer@subsectionpages {22}{33}}}
\@writefile{nav}{\headcommand {\slideentry {8}{0}{1}{34/34}{}{3}}}
\@writefile{nav}{\headcommand {\beamer@framepages {34}{34}}}
\@writefile{toc}{\beamer@sectionintoc {9}{\IeC {\'E}rosion}{35}{3}{9}}
\@writefile{nav}{\headcommand {\sectionentry {9}{\IeC {\'E}rosion}{35}{\IeC {\'E}rosion}{3}}}
\@writefile{nav}{\headcommand {\beamer@sectionpages {34}{34}}}
\@writefile{nav}{\headcommand {\beamer@subsectionpages {34}{34}}}
\@writefile{nav}{\headcommand {\slideentry {9}{0}{1}{35/35}{}{3}}}
\@writefile{nav}{\headcommand {\beamer@framepages {35}{35}}}
\@writefile{nav}{\headcommand {\slideentry {9}{0}{2}{36/36}{}{3}}}
\@writefile{nav}{\headcommand {\beamer@framepages {36}{36}}}
\@writefile{nav}{\headcommand {\slideentry {9}{0}{3}{37/37}{}{3}}}
\@writefile{nav}{\headcommand {\beamer@framepages {37}{37}}}
\@writefile{nav}{\headcommand {\beamer@partpages {14}{37}}}
\@writefile{nav}{\headcommand {\beamer@subsectionpages {35}{37}}}
\@writefile{nav}{\headcommand {\beamer@sectionpages {35}{37}}}
\@writefile{nav}{\headcommand {\beamer@documentpages {37}}}
\@writefile{nav}{\headcommand {\def \inserttotalframenumber {35}}}
