\relax 
\providecommand\hyper@newdestlabel[2]{}
\providecommand{\transparent@use}[1]{}
\@setckpt{construction/images/diagramme_modele}{
\setcounter{page}{7}
\setcounter{equation}{0}
\setcounter{enumi}{0}
\setcounter{enumii}{0}
\setcounter{enumiii}{0}
\setcounter{enumiv}{0}
\setcounter{footnote}{0}
\setcounter{mpfootnote}{0}
\setcounter{beamerpauses}{1}
\setcounter{bookmark@seq@number}{4}
\setcounter{lecture}{0}
\setcounter{part}{1}
\setcounter{section}{2}
\setcounter{subsection}{1}
\setcounter{subsubsection}{0}
\setcounter{subsectionslide}{1}
\setcounter{framenumber}{5}
\setcounter{figure}{0}
\setcounter{table}{0}
\setcounter{parentequation}{0}
\setcounter{theorem}{0}
\setcounter{nprt@mantissa@digitsbefore}{0}
\setcounter{nprt@mantissa@digitsafter}{0}
\setcounter{nprt@exponent@digitsbefore}{0}
\setcounter{nprt@exponent@digitsafter}{0}
\setcounter{nprt@digitsfirstblock}{0}
\setcounter{nprt@blockcnt}{0}
\setcounter{nprt@cntprint}{0}
\setcounter{vrcnt}{0}
\setcounter{section@level}{0}
}
