# Fdb version 3
["pdflatex"] 1587052620 "grand_cycle.tex" "prod/grand_cycle.pdf" "grand_cycle" 1587052620
  "aux/grand_cycle.aux" 1582694563 8 a94a2480d3289e625eea47cd1b285758 ""
  "grand_cycle.tex" 1583132948 7662 d393b7e2329a14172ad5881fe546b61b ""
  (generated)
  "prod/grand_cycle.pdf"
  "aux/grand_cycle.log"
