# Fdb version 3
["pdflatex"] 1587052620 "sol_eau_air.tex" "prod/sol_eau_air.pdf" "sol_eau_air" 1587052620
  "aux/sol_eau_air.aux" 1582694563 8 a94a2480d3289e625eea47cd1b285758 ""
  "sol_eau_air.tex" 1582906004 14340 2a1c3b3a7877135672b016068583fb15 ""
  (generated)
  "aux/sol_eau_air.log"
  "prod/sol_eau_air.pdf"
