PWD /home/denis/Documentos/fichiers_de_travail/hydro/Formations-conferences/Arbres_et_paysages
INPUT /usr/share/texmf-dist/web2c/texmf.cnf
INPUT /var/lib/texmf/web2c/pdftex/pdflatex.fmt
INPUT grand_cycle.tex
OUTPUT prod/grand_cycle.log
INPUT /usr/share/texmf-dist/fonts/map/fontname/texfonts.map
INPUT /usr/share/texmf-dist/fonts/tfm/public/cm/cmtt10.tfm
INPUT construction/images/diagramme_modele.tex
INPUT construction/images/diagramme_modele.tex
INPUT /usr/share/texmf-dist/fonts/tfm/public/cm/cmti10.tfm
