PWD /home/denis/Documentos/fichiers_de_travail/hydro/Formations-conferences/Arbres_et_paysages
INPUT /usr/share/texmf-dist/web2c/texmf.cnf
INPUT /var/lib/texmf/web2c/pdftex/pdflatex.fmt
INPUT sol_eau_air.tex
OUTPUT prod/sol_eau_air.log
INPUT /usr/share/texmf-dist/fonts/map/fontname/texfonts.map
INPUT /usr/share/texmf-dist/fonts/tfm/public/cm/cmti10.tfm
